{
    "/js/ajaxchimp.min.js": "/js/ajaxchimp.min.js",
    "/js/all.min.js": "/js/all.min.js",
    "/js/animate.js": "/js/animate.js",
    "/js/aos.js": "/js/aos.js",
    "/js/aos2.js": "/js/aos2.js",
    "/js/app.js": "/js/app.js",
    "/js/barfiller.js": "/js/barfiller.js",
    "/js/bootstrap.min.js": "/js/bootstrap.min.js",
    "/js/bootstrap.min.js.map": "/js/bootstrap.min.js.map",
    "/js/collapse.js": "/js/collapse.js",
    "/js/color-switcher.js": "/js/color-switcher.js",
    "/js/Countdown.min.js": "/js/Countdown.min.js",
    "/js/counterup.js": "/js/counterup.js",
    "/js/css_browser_selector.js": "/js/css_browser_selector.js",
    "/js/dashbord-mobile-menu.js": "/js/dashbord-mobile-menu.js",
    "/js/datedropper.js": "/js/datedropper.js",
    "/js/dropzone.js": "/js/dropzone.js",
    "/js/fitvids.js": "/js/fitvids.js",
    "/js/fontawesome-all.min.js": "/js/fontawesome-all.min.js",
    "/js/forms-2.js": "/js/forms-2.js",
    "/js/forms.js": "/js/forms.js",
    "/js/gmap3.clusterer.js": "/js/gmap3.clusterer.js",
    "/js/gmap3.infobox.js": "/js/gmap3.infobox.js",
    "/js/gmap3.min.js": "/js/gmap3.min.js",
    "/js/imagesloaded.pkgd.min.js": "/js/imagesloaded.pkgd.min.js",
    "/js/inner-2.js": "/js/inner-2.js",
    "/js/inner.js": "/js/inner.js",
    "/js/ion.rangeSlider.min.js": "/js/ion.rangeSlider.min.js",
    "/js/isotope.pkgd.min.js": "/js/isotope.pkgd.min.js",
    "/js/jquery-3.3.1.min.js": "/js/jquery-3.3.1.min.js",
    "/js/jquery-3.5.1.min.js": "/js/jquery-3.5.1.min.js",
    "/js/jquery-ui.js": "/js/jquery-ui.js",
    "/js/jquery.barfiller.js": "/js/jquery.barfiller.js",
    "/js/jquery.countdown.js": "/js/jquery.countdown.js",
    "/js/jquery.counterup.min.js": "/js/jquery.counterup.min.js",
    "/js/jquery.form.js": "/js/jquery.form.js",
    "/js/jquery.magnific-popup.min.js": "/js/jquery.magnific-popup.min.js",
    "/js/jquery.min.js": "/js/jquery.min.js",
    "/js/jquery.validate.min.js": "/js/jquery.validate.min.js",
    "/js/jquery.waypoints.min.js": "/js/jquery.waypoints.min.js",
    "/js/leaflet-gesture-handling.min.js": "/js/leaflet-gesture-handling.min.js",
    "/js/leaflet-gesture-handling.min.js.map": "/js/leaflet-gesture-handling.min.js.map",
    "/js/leaflet-providers.js": "/js/leaflet-providers.js",
    "/js/leaflet.js": "/js/leaflet.js",
    "/js/leaflet.markercluster.js": "/js/leaflet.markercluster.js",
    "/js/light.js": "/js/light.js",
    "/js/lightcase.js": "/js/lightcase.js",
    "/js/map-single.js": "/js/map-single.js",
    "/js/map-style2.js": "/js/map-style2.js",
    "/js/map-style3.js": "/js/map-style3.js",
    "/js/map.js": "/js/map.js",
    "/js/map3.js": "/js/map3.js",
    "/js/map4.js": "/js/map4.js",
    "/js/markers.js": "/js/markers.js",
    "/js/markers.json": "/js/markers.json",
    "/js/markers2.json": "/js/markers2.json",
    "/js/markers3.json": "/js/markers3.json",
    "/js/mmenu.js": "/js/mmenu.js",
    "/js/mmenu.min.js": "/js/mmenu.min.js",
    "/js/moment.js": "/js/moment.js",
    "/js/newsletter.js": "/js/newsletter.js",
    "/js/nice-select.js": "/js/nice-select.js",
    "/js/nouislider.min.js": "/js/nouislider.min.js",
    "/js/owl-carousel2.js": "/js/owl-carousel2.js",
    "/js/owl.carousel.js": "/js/owl.carousel.js",
    "/js/owl.carousel.min.js": "/js/owl.carousel.min.js",
    "/js/owl.carousel2.min.js": "/js/owl.carousel2.min.js",
    "/js/particles.min.js": "/js/particles.min.js",
    "/js/popper.min.js": "/js/popper.min.js",
    "/js/popper.min.js.map": "/js/popper.min.js.map",
    "/js/popup.js": "/js/popup.js",
    "/js/port.js": "/js/port.js",
    "/js/range-slider.js": "/js/range-slider.js",
    "/js/range.js": "/js/range.js",
    "/js/rangeSlider.js": "/js/rangeSlider.js",
    "/js/rangeslider.min.js": "/js/rangeslider.min.js",
    "/js/require.js": "/js/require.js",
    "/js/script-2.js": "/js/script-2.js",
    "/js/script.js": "/js/script.js",
    "/js/search.js": "/js/search.js",
    "/js/searched.js": "/js/searched.js",
    "/js/slick.js": "/js/slick.js",
    "/js/slick.min.js": "/js/slick.min.js",
    "/js/slick2.js": "/js/slick2.js",
    "/js/slick3.js": "/js/slick3.js",
    "/js/slick4.js": "/js/slick4.js",
    "/js/smooth-scroll.min.js": "/js/smooth-scroll.min.js",
    "/js/solid.min.js": "/js/solid.min.js",
    "/js/sticky-kit.min.js": "/js/sticky-kit.min.js",
    "/js/swiper.js": "/js/swiper.js",
    "/js/swiper.min.js": "/js/swiper.min.js",
    "/js/swiper.min.js.map": "/js/swiper.min.js.map",
    "/js/swipper.js": "/js/swipper.js",
    "/js/tether.min.js": "/js/tether.min.js",
    "/js/timedropper.js": "/js/timedropper.js",
    "/js/timer.js": "/js/timer.js",
    "/js/transition.min.js": "/js/transition.min.js",
    "/js/typed.min.js": "/js/typed.min.js",
    "/js/typed.min.js.map": "/js/typed.min.js.map",
    "/js/ui-lement.js": "/js/ui-lement.js",
    "/js/under.js": "/js/under.js",
    "/css/all.min.css": "/css/all.min.css",
    "/css/animate.css": "/css/animate.css",
    "/css/animate.min.css": "/css/animate.min.css",
    "/css/aos.css": "/css/aos.css",
    "/css/aos2.css": "/css/aos2.css",
    "/css/bootstrap.css.map": "/css/bootstrap.css.map",
    "/css/bootstrap.min.css": "/css/bootstrap.min.css",
    "/css/bootstrap.min.css.map": "/css/bootstrap.min.css.map",
    "/css/colors/black.css": "/css/colors/black.css",
    "/css/colors/blue.css": "/css/colors/blue.css",
    "/css/colors/brown.css": "/css/colors/brown.css",
    "/css/colors/cyan.css": "/css/colors/cyan.css",
    "/css/colors/dark-gray.css": "/css/colors/dark-gray.css",
    "/css/colors/dark-orange.css": "/css/colors/dark-orange.css",
    "/css/colors/darkblue.css": "/css/colors/darkblue.css",
    "/css/colors/gray.css": "/css/colors/gray.css",
    "/css/colors/green.css": "/css/colors/green.css",
    "/css/colors/icons/blue/1.png": "/css/colors/icons/blue/1.png",
    "/css/colors/icons/blue/2.png": "/css/colors/icons/blue/2.png",
    "/css/colors/icons/blue/3.png": "/css/colors/icons/blue/3.png",
    "/css/colors/icons/blue/4.png": "/css/colors/icons/blue/4.png",
    "/css/colors/icons/brown/1.png": "/css/colors/icons/brown/1.png",
    "/css/colors/icons/brown/2.png": "/css/colors/icons/brown/2.png",
    "/css/colors/icons/brown/3.png": "/css/colors/icons/brown/3.png",
    "/css/colors/icons/brown/4.png": "/css/colors/icons/brown/4.png",
    "/css/colors/icons/cyan/1.png": "/css/colors/icons/cyan/1.png",
    "/css/colors/icons/cyan/2.png": "/css/colors/icons/cyan/2.png",
    "/css/colors/icons/cyan/3.png": "/css/colors/icons/cyan/3.png",
    "/css/colors/icons/cyan/4.png": "/css/colors/icons/cyan/4.png",
    "/css/colors/icons/gray/1.png": "/css/colors/icons/gray/1.png",
    "/css/colors/icons/gray/2.png": "/css/colors/icons/gray/2.png",
    "/css/colors/icons/gray/3.png": "/css/colors/icons/gray/3.png",
    "/css/colors/icons/gray/4.png": "/css/colors/icons/gray/4.png",
    "/css/colors/icons/gray/logo-footer_1.svg": "/css/colors/icons/gray/logo-footer_1.svg",
    "/css/colors/icons/green/1.png": "/css/colors/icons/green/1.png",
    "/css/colors/icons/green/2.png": "/css/colors/icons/green/2.png",
    "/css/colors/icons/green/3.png": "/css/colors/icons/green/3.png",
    "/css/colors/icons/green/4.png": "/css/colors/icons/green/4.png",
    "/css/colors/icons/green/logo-footer_1.svg": "/css/colors/icons/green/logo-footer_1.svg",
    "/css/colors/icons/orange/1.png": "/css/colors/icons/orange/1.png",
    "/css/colors/icons/orange/2.png": "/css/colors/icons/orange/2.png",
    "/css/colors/icons/orange/3.png": "/css/colors/icons/orange/3.png",
    "/css/colors/icons/orange/4.png": "/css/colors/icons/orange/4.png",
    "/css/colors/icons/orange/logo-footer.svg": "/css/colors/icons/orange/logo-footer.svg",
    "/css/colors/icons/pink/1.png": "/css/colors/icons/pink/1.png",
    "/css/colors/icons/pink/2.png": "/css/colors/icons/pink/2.png",
    "/css/colors/icons/pink/3.png": "/css/colors/icons/pink/3.png",
    "/css/colors/icons/pink/4.png": "/css/colors/icons/pink/4.png",
    "/css/colors/icons/pink/logo-footer.svg": "/css/colors/icons/pink/logo-footer.svg",
    "/css/colors/icons/purple/1.png": "/css/colors/icons/purple/1.png",
    "/css/colors/icons/purple/2.png": "/css/colors/icons/purple/2.png",
    "/css/colors/icons/purple/3.png": "/css/colors/icons/purple/3.png",
    "/css/colors/icons/purple/4.png": "/css/colors/icons/purple/4.png",
    "/css/colors/icons/red/1.png": "/css/colors/icons/red/1.png",
    "/css/colors/icons/red/2.png": "/css/colors/icons/red/2.png",
    "/css/colors/icons/red/3.png": "/css/colors/icons/red/3.png",
    "/css/colors/icons/red/4.png": "/css/colors/icons/red/4.png",
    "/css/colors/icons/sky-blue/1.png": "/css/colors/icons/sky-blue/1.png",
    "/css/colors/icons/sky-blue/2.png": "/css/colors/icons/sky-blue/2.png",
    "/css/colors/icons/sky-blue/3.png": "/css/colors/icons/sky-blue/3.png",
    "/css/colors/icons/sky-blue/4.png": "/css/colors/icons/sky-blue/4.png",
    "/css/colors/light-black.css": "/css/colors/light-black.css",
    "/css/colors/light-purple.css": "/css/colors/light-purple.css",
    "/css/colors/orange.css": "/css/colors/orange.css",
    "/css/colors/pink.css": "/css/colors/pink.css",
    "/css/colors/purple.css": "/css/colors/purple.css",
    "/css/colors/red.css": "/css/colors/red.css",
    "/css/colors/sky-blue.css": "/css/colors/sky-blue.css",
    "/css/dashbord-mobile-menu.css": "/css/dashbord-mobile-menu.css",
    "/css/datedropper.css": "/css/datedropper.css",
    "/css/default.css": "/css/default.css",
    "/css/et-line.css": "/css/et-line.css",
    "/css/flaticon.css": "/css/flaticon.css",
    "/css/font-awesome.min.css": "/css/font-awesome.min.css",
    "/css/fontawesome-5-all.min.css": "/css/fontawesome-5-all.min.css",
    "/css/fontawesome-all.css": "/css/fontawesome-all.css",
    "/css/fontawesome-all.min.css": "/css/fontawesome-all.min.css",
    "/css/fontawesome.min.css": "/css/fontawesome.min.css",
    "/css/images/layers-2x.png": "/css/images/layers-2x.png",
    "/css/images/layers.png": "/css/images/layers.png",
    "/css/images/marker-icon-2x.png": "/css/images/marker-icon-2x.png",
    "/css/images/marker-icon.png": "/css/images/marker-icon.png",
    "/css/images/marker-shadow.png": "/css/images/marker-shadow.png",
    "/css/invoice.css": "/css/invoice.css",
    "/css/ion.rangeSlider.css": "/css/ion.rangeSlider.css",
    "/css/jquery-ui.css": "/css/jquery-ui.css",
    "/css/leaflet-gesture-handling.min.css": "/css/leaflet-gesture-handling.min.css",
    "/css/leaflet.css": "/css/leaflet.css",
    "/css/leaflet.markercluster.css": "/css/leaflet.markercluster.css",
    "/css/leaflet.markercluster.default.css": "/css/leaflet.markercluster.default.css",
    "/css/lightcase.css": "/css/lightcase.css",
    "/css/magnific-popup.css": "/css/magnific-popup.css",
    "/css/maps.css": "/css/maps.css",
    "/css/MarkerCluster.css": "/css/MarkerCluster.css",
    "/css/MarkerCluster.Default.css": "/css/MarkerCluster.Default.css",
    "/css/menu.css": "/css/menu.css",
    "/css/nice-select.css": "/css/nice-select.css",
    "/css/nice-select.min.css.map": "/css/nice-select.min.css.map",
    "/css/nouislider.min.css": "/css/nouislider.min.css",
    "/css/owl-carousel.css": "/css/owl-carousel.css",
    "/css/owl-carousel2.css": "/css/owl-carousel2.css",
    "/css/owl.carousel.min.css": "/css/owl.carousel.min.css",
    "/css/owl.carousel2.min.css": "/css/owl.carousel2.min.css",
    "/css/owl.theme.default.min.css": "/css/owl.theme.default.min.css",
    "/css/search-form.css": "/css/search-form.css",
    "/css/search.css": "/css/search.css",
    "/css/slick.css": "/css/slick.css",
    "/css/slider-home18.css": "/css/slider-home18.css",
    "/css/slider-search.css": "/css/slider-search.css",
    "/css/slider-search2.css": "/css/slider-search2.css",
    "/css/src/datedropper.eot": "/css/src/datedropper.eot",
    "/css/src/datedropper.svg": "/css/src/datedropper.svg",
    "/css/src/datedropper.ttf": "/css/src/datedropper.ttf",
    "/css/src/datedropper.woff": "/css/src/datedropper.woff",
    "/css/styles.css": "/css/styles.css",
    "/css/styles.css.map": "/css/styles.css.map",
    "/css/swiper.min.css": "/css/swiper.min.css",
    "/css/timedropper.css": "/css/timedropper.css",
    "/css/video.css": "/css/video.css"
}
